multiplier/multiplier.sim/sim_1/behav/xsim/simulate.log
Vivado Simulator 2018.3
Time resolution is 1 ps
At time                10000, a = 4294967100, b = 4000000100, product = 17179868829496710000
At time                20000, a = 4294967100, b = 4000000101, product = 17179868833791677100
At time                30000, a = 4294967100, b = 4000000102, product = 17179868838086644200
At time                40000, a = 4294967100, b = 4000000103, product = 17179868842381611300
At time                50000, a = 4294967100, b = 4000000104, product = 17179868846676578400
At time                60000, a = 4294967100, b = 4000000105, product = 17179868850971545500
At time                70000, a = 4294967100, b = 4000000106, product = 17179868855266512600
At time                80000, a = 4294967100, b = 4000000107, product = 17179868859561479700
At time                90000, a = 4294967100, b = 4000000108, product = 17179868863856446800
At time               100000, a = 4294967100, b = 4000000109, product = 17179868868151413900
At time               110000, a = 4294967100, b = 4000000110, product = 17179868872446381000
At time               120000, a = 4294967100, b = 4000000111, product = 17179868876741348100
At time               130000, a = 4294967100, b = 4000000112, product = 17179868881036315200
At time               140000, a = 4294967100, b = 4000000113, product = 17179868885331282300
At time               150000, a = 4294967100, b = 4000000114, product = 17179868889626249400
At time               160000, a = 4294967100, b = 4000000115, product = 17179868893921216500
At time               170000, a = 4294967100, b = 4000000116, product = 17179868898216183600
At time               180000, a = 4294967100, b = 4000000117, product = 17179868902511150700
At time               190000, a = 4294967100, b = 4000000118, product = 17179868906806117800
At time               200000, a = 4294967100, b = 4000000119, product = 17179868911101084900
At time               210000, a = 4294967100, b = 4000000120, product = 17179868915396052000
At time               220000, a = 4294967100, b = 4000000121, product = 17179868919691019100
At time               230000, a = 4294967100, b = 4000000122, product = 17179868923985986200
At time               240000, a = 4294967100, b = 4000000123, product = 17179868928280953300
At time               250000, a = 4294967100, b = 4000000124, product = 17179868932575920400
At time               260000, a = 4294967100, b = 4000000125, product = 17179868936870887500
At time               270000, a = 4294967100, b = 4000000126, product = 17179868941165854600
At time               280000, a = 4294967100, b = 4000000127, product = 17179868945460821700
At time               290000, a = 4294967100, b = 4000000128, product = 17179868949755788800
At time               300000, a = 4294967100, b = 4000000129, product = 17179868954050755900
At time               310000, a = 4294967100, b = 4000000130, product = 17179868958345723000
At time               320000, a = 4294967100, b = 4000000131, product = 17179868962640690100
At time               330000, a = 4294967100, b = 4000000132, product = 17179868966935657200
At time               340000, a = 4294967100, b = 4000000133, product = 17179868971230624300
At time               350000, a = 4294967100, b = 4000000134, product = 17179868975525591400
At time               360000, a = 4294967100, b = 4000000135, product = 17179868979820558500
At time               370000, a = 4294967100, b = 4000000136, product = 17179868984115525600
At time               380000, a = 4294967100, b = 4000000137, product = 17179868988410492700
At time               390000, a = 4294967100, b = 4000000138, product = 17179868992705459800
At time               400000, a = 4294967100, b = 4000000139, product = 17179868997000426900
At time               410000, a = 4294967100, b = 4000000140, product = 17179869001295394000
At time               420000, a = 4294967100, b = 4000000141, product = 17179869005590361100
At time               430000, a = 4294967100, b = 4000000142, product = 17179869009885328200
At time               440000, a = 4294967100, b = 4000000143, product = 17179869014180295300
At time               450000, a = 4294967100, b = 4000000144, product = 17179869018475262400
At time               460000, a = 4294967100, b = 4000000145, product = 17179869022770229500
At time               470000, a = 4294967100, b = 4000000146, product = 17179869027065196600
At time               480000, a = 4294967100, b = 4000000147, product = 17179869031360163700
At time               490000, a = 4294967100, b = 4000000148, product = 17179869035655130800
At time               500000, a = 4294967100, b = 4000000149, product = 17179869039950097900
At time               510000, a = 4294967100, b = 4000000150, product = 17179869044245065000
At time               520000, a = 4294967100, b = 4000000151, product = 17179869048540032100
At time               530000, a = 4294967100, b = 4000000152, product = 17179869052834999200
At time               540000, a = 4294967100, b = 4000000153, product = 17179869057129966300
At time               550000, a = 4294967100, b = 4000000154, product = 17179869061424933400
At time               560000, a = 4294967100, b = 4000000155, product = 17179869065719900500
At time               570000, a = 4294967100, b = 4000000156, product = 17179869070014867600
At time               580000, a = 4294967100, b = 4000000157, product = 17179869074309834700
At time               590000, a = 4294967100, b = 4000000158, product = 17179869078604801800
At time               600000, a = 4294967100, b = 4000000159, product = 17179869082899768900
At time               610000, a = 4294967100, b = 4000000160, product = 17179869087194736000
At time               620000, a = 4294967100, b = 4000000161, product = 17179869091489703100
At time               630000, a = 4294967100, b = 4000000162, product = 17179869095784670200
At time               640000, a = 4294967100, b = 4000000163, product = 17179869100079637300
At time               650000, a = 4294967100, b = 4000000164, product = 17179869104374604400
At time               660000, a = 4294967100, b = 4000000165, product = 17179869108669571500
At time               670000, a = 4294967100, b = 4000000166, product = 17179869112964538600
At time               680000, a = 4294967100, b = 4000000167, product = 17179869117259505700
At time               690000, a = 4294967100, b = 4000000168, product = 17179869121554472800
At time               700000, a = 4294967100, b = 4000000169, product = 17179869125849439900
At time               710000, a = 4294967100, b = 4000000170, product = 17179869130144407000
At time               720000, a = 4294967100, b = 4000000171, product = 17179869134439374100
At time               730000, a = 4294967100, b = 4000000172, product = 17179869138734341200
At time               740000, a = 4294967100, b = 4000000173, product = 17179869143029308300
At time               750000, a = 4294967100, b = 4000000174, product = 17179869147324275400
At time               760000, a = 4294967100, b = 4000000175, product = 17179869151619242500
At time               770000, a = 4294967100, b = 4000000176, product = 17179869155914209600
At time               780000, a = 4294967100, b = 4000000177, product = 17179869160209176700
At time               790000, a = 4294967100, b = 4000000178, product = 17179869164504143800
At time               800000, a = 4294967100, b = 4000000179, product = 17179869168799110900
At time               810000, a = 4294967100, b = 4000000180, product = 17179869173094078000
At time               820000, a = 4294967100, b = 4000000181, product = 17179869177389045100
At time               830000, a = 4294967100, b = 4000000182, product = 17179869181684012200
At time               840000, a = 4294967100, b = 4000000183, product = 17179869185978979300
At time               850000, a = 4294967100, b = 4000000184, product = 17179869190273946400
At time               860000, a = 4294967100, b = 4000000185, product = 17179869194568913500
At time               870000, a = 4294967100, b = 4000000186, product = 17179869198863880600
At time               880000, a = 4294967100, b = 400